Module 1 By Brian Weinfeld
…
#Summary of Employees by Industry
inc %>%
  filter(complete.cases(.)) %>%
  group_by(Industry) %>%
  summarise(count = n(),
            min = min(Employees),
            avg = mean(Employees),
            med = median(Employees),
            max = max(Employees)) %>%
  arrange(desc(med))

## # A tibble: 25 x 6
##    Industry               count   min   avg   med   max
##    <fct>                  <int> <dbl> <dbl> <dbl> <dbl>
##  1 Security                  73     7  562.  77   20000
##  2 Human Resources          196     4 1158.  71.5 66803
##  3 Government Services      202     6  130.  71    1352
##  4 Health                   354     2  233.  71    4390
##  5 Energy                   109     2  243.  70    2501
##  6 Financial Services       260     5  183.  70    1829
##  7 Software                 341     1  150.  69    3000
##  8 Environmental Services    51     4  199.  67    5347
##  9 Food & Beverage          129     3  511.  65    7681
## 10 Telecommunications       127     6  243.  65   10000
## # ... with 15 more rows

#Number of Unique Cities Appears by State
inc %>%
  group_by(State) %>%
  summarise(Cities = n_distinct(City)) %>%
  arrange(desc(Cities))

## # A tibble: 52 x 2
##    State Cities
##    <fct>  <int>
##  1 CA       204
##  2 IL       104
##  3 FL       102
##  4 NJ        97
##  5 NY        90
##  6 PA        80
##  7 OH        79
##  8 MA        72
##  9 TX        67
## 10 VA        56
## # ... with 42 more rows

#Summary of Growth Rate by Industry
inc %>%
  filter(complete.cases(.)) %>%
  group_by(Industry) %>%
  summarise(count = n(),
            min = min(Growth_Rate),
            avg = mean(Growth_Rate),
            med = median(Growth_Rate),
            max = max(Growth_Rate)) %>%
  arrange(desc(med))

## # A tibble: 25 x 6
##    Industry                     count   min   avg   med   max
##    <fct>                        <int> <dbl> <dbl> <dbl> <dbl>
##  1 Government Services            202  0.35  7.24  2.11 248. 
##  2 Energy                         109  0.35  9.60  2.08 233. 
##  3 Real Estate                     95  0.35  7.82  2.08 179. 
##  4 Media                           54  0.41  4.37  1.94  23.0
##  5 Consumer Products & Services   203  0.35  8.78  1.82 421. 
##  6 Retail                         203  0.34  6.18  1.76 167. 
##  7 Software                       341  0.35  5.03  1.7  129. 
##  8 Advertising & Marketing        471  0.35  6.23  1.61 213. 
##  9 Health                         354  0.35  4.87  1.57 245. 
## 10 Security                        73  0.37  3.39  1.54  31.2
## # ... with 15 more rows
…
